(footprint "SARA-R5"
	(version 20240108)
	(generator "pcbnew")
	(generator_version "8.0")
	(layer "F.Cu")
	(tags "LTE U-Blox GNSS")
	(property "Reference" "REF**"
		(at 1 -0.75 0)
		(unlocked yes)
		(layer "F.SilkS")
		(uuid "c6371ece-5a8c-41f0-9851-014c38cca6e8")
		(effects
			(font
				(size 1 1)
				(thickness 0.1)
			)
		)
	)
	(property "Value" "SARA-R5"
		(at 3.5 -4.5 0)
		(unlocked yes)
		(layer "F.Fab")
		(uuid "7bb10db6-fc49-494f-a165-da299dfa29f0")
		(effects
			(font
				(size 1 1)
				(thickness 0.15)
			)
		)
	)
	(property "Footprint" "SARA-R5"
		(at 3.5 -6 0)
		(unlocked yes)
		(layer "F.Fab")
		(hide yes)
		(uuid "4c1bb8f3-53bd-4909-9747-5cf80256987c")
		(effects
			(font
				(size 1 1)
				(thickness 0.15)
			)
		)
	)
	(property "Datasheet" ""
		(at 0 0 0)
		(unlocked yes)
		(layer "F.Fab")
		(hide yes)
		(uuid "b542c61b-4728-4547-9808-c71b36af5de3")
		(effects
			(font
				(size 1 1)
				(thickness 0.15)
			)
		)
	)
	(property "Description" ""
		(at 0 0 0)
		(unlocked yes)
		(layer "F.Fab")
		(hide yes)
		(uuid "8023c6ed-a8b4-4971-9f35-40aeba27c532")
		(effects
			(font
				(size 1 1)
				(thickness 0.15)
			)
		)
	)
	(property "doc" "https://content.u-blox.com/sites/default/files/SARA-R5_SysIntegrManual_UBX-19041356.pdf"
		(at 0 -8 0)
		(unlocked yes)
		(layer "F.SilkS")
		(hide yes)
		(uuid "f2e7538e-98e5-4393-9fa6-88460b935532")
		(effects
			(font
				(size 1 1)
				(thickness 0.1)
			)
			(justify left)
		)
	)
	(attr smd)
	(fp_rect
		(start 0.225 1.625)
		(end 1.775 2.375)
		(stroke
			(width 0)
			(type solid)
		)
		(fill solid)
		(layer "F.Paste")
		(uuid "70e16d23-ad07-47f5-a645-ac4019067006")
	)
	(fp_rect
		(start 0.225 2.725)
		(end 1.775 3.475)
		(stroke
			(width 0)
			(type solid)
		)
		(fill solid)
		(layer "F.Paste")
		(uuid "8aeb7310-e12c-44b6-9351-dd36f9c95a5e")
	)
	(fp_rect
		(start 0.225 3.825)
		(end 1.775 4.575)
		(stroke
			(width 0)
			(type solid)
		)
		(fill solid)
		(layer "F.Paste")
		(uuid "2f36bc08-1da7-4d91-a6d9-44abe1d281f6")
	)
	(fp_rect
		(start 0.225 4.925)
		(end 1.775 5.675)
		(stroke
			(width 0)
			(type solid)
		)
		(fill solid)
		(layer "F.Paste")
		(uuid "6d693872-123f-4b2b-ad30-361d91db3475")
	)
	(fp_rect
		(start 0.225 6.025)
		(end 1.775 6.775)
		(stroke
			(width 0)
			(type solid)
		)
		(fill solid)
		(layer "F.Paste")
		(uuid "292f5e22-52df-4e43-87b4-6bc1f12eb60f")
	)
	(fp_rect
		(start 0.225 7.125)
		(end 1.775 7.875)
		(stroke
			(width 0)
			(type solid)
		)
		(fill solid)
		(layer "F.Paste")
		(uuid "b27f7e94-3e05-4ea7-8aff-93be42f066d9")
	)
	(fp_rect
		(start 0.225 8.225)
		(end 1.775 8.975)
		(stroke
			(width 0)
			(type solid)
		)
		(fill solid)
		(layer "F.Paste")
		(uuid "55a0da0a-e245-49c6-b012-e7e02ded5b57")
	)
	(fp_rect
		(start 0.225 9.325)
		(end 1.775 10.075)
		(stroke
			(width 0)
			(type solid)
		)
		(fill solid)
		(layer "F.Paste")
		(uuid "65d3910a-1c59-446d-a0e6-df3f89c13979")
	)
	(fp_rect
		(start 0.225 10.425)
		(end 1.775 11.175)
		(stroke
			(width 0)
			(type solid)
		)
		(fill solid)
		(layer "F.Paste")
		(uuid "038af733-ac4b-494f-8722-8b933410d6bd")
	)
	(fp_rect
		(start 0.225 11.525)
		(end 1.775 12.275)
		(stroke
			(width 0)
			(type solid)
		)
		(fill solid)
		(layer "F.Paste")
		(uuid "59c050bf-461c-45ad-999d-9b5dde9b96ca")
	)
	(fp_rect
		(start 0.225 12.625)
		(end 1.775 13.375)
		(stroke
			(width 0)
			(type solid)
		)
		(fill solid)
		(layer "F.Paste")
		(uuid "3ddc5428-f72d-49a1-ac0a-7a15029c9566")
	)
	(fp_rect
		(start 0.225 13.725)
		(end 1.775 14.475)
		(stroke
			(width 0)
			(type solid)
		)
		(fill solid)
		(layer "F.Paste")
		(uuid "4f3be99c-8623-4509-8aa1-f88d98030aad")
	)
	(fp_rect
		(start 0.225 14.825)
		(end 1.775 15.575)
		(stroke
			(width 0)
			(type solid)
		)
		(fill solid)
		(layer "F.Paste")
		(uuid "5f2e994c-f21c-4299-b90d-d2f314bdfe1b")
	)
	(fp_rect
		(start 0.225 15.925)
		(end 1.775 16.675)
		(stroke
			(width 0)
			(type solid)
		)
		(fill solid)
		(layer "F.Paste")
		(uuid "42913954-3c5e-4546-9f49-403a35c6966c")
	)
	(fp_rect
		(start 0.225 17.025)
		(end 1.775 17.775)
		(stroke
			(width 0)
			(type solid)
		)
		(fill solid)
		(layer "F.Paste")
		(uuid "90ec1d60-fe48-41fe-8b24-36c908d66fdb")
	)
	(fp_rect
		(start 0.225 18.125)
		(end 1.775 18.875)
		(stroke
			(width 0)
			(type solid)
		)
		(fill solid)
		(layer "F.Paste")
		(uuid "41201750-672d-4bef-a934-cfd9e9ab4cf8")
	)
	(fp_rect
		(start 0.225 19.225)
		(end 1.775 19.975)
		(stroke
			(width 0)
			(type solid)
		)
		(fill solid)
		(layer "F.Paste")
		(uuid "10445e72-d054-42f2-937f-f20b34f8d652")
	)
	(fp_rect
		(start 0.225 20.325)
		(end 1.775 21.075)
		(stroke
			(width 0)
			(type solid)
		)
		(fill solid)
		(layer "F.Paste")
		(uuid "c447aaa2-7d4b-4397-a953-9acdb8683546")
	)
	(fp_rect
		(start 0.225 21.425)
		(end 1.775 22.175)
		(stroke
			(width 0)
			(type solid)
		)
		(fill solid)
		(layer "F.Paste")
		(uuid "49fccb5c-a890-47ce-ae46-39be628d1ea1")
	)
	(fp_rect
		(start 0.225 22.525)
		(end 1.775 23.275)
		(stroke
			(width 0)
			(type solid)
		)
		(fill solid)
		(layer "F.Paste")
		(uuid "dc736b6d-b4c8-4f88-bd1d-ce87332c7bf5")
	)
	(fp_rect
		(start 0.225 23.625)
		(end 1.775 24.375)
		(stroke
			(width 0)
			(type solid)
		)
		(fill solid)
		(layer "F.Paste")
		(uuid "4e75a10f-b8c6-4f3f-a40f-2a068defddae")
	)
	(fp_rect
		(start 2.125 0.225)
		(end 2.875 1.775)
		(stroke
			(width 0)
			(type solid)
		)
		(fill solid)
		(layer "F.Paste")
		(uuid "9a4124cb-6fa3-4676-874e-bfe5fe3c0f3b")
	)
	(fp_rect
		(start 2.125 24.225)
		(end 2.875 25.775)
		(stroke
			(width 0)
			(type solid)
		)
		(fill solid)
		(layer "F.Paste")
		(uuid "f2b38c5d-5796-4860-a765-7a7f356ad98f")
	)
	(fp_rect
		(start 3.225 0.225)
		(end 3.975 1.775)
		(stroke
			(width 0)
			(type solid)
		)
		(fill solid)
		(layer "F.Paste")
		(uuid "f54bffaf-f9fc-4f2c-a611-f85c705d4056")
	)
	(fp_rect
		(start 3.225 24.225)
		(end 3.975 25.775)
		(stroke
			(width 0)
			(type solid)
		)
		(fill solid)
		(layer "F.Paste")
		(uuid "0c7b5bcc-ae5a-40b3-a18e-c9fbf1d8b4eb")
	)
	(fp_rect
		(start 4.325 0.225)
		(end 5.075 1.775)
		(stroke
			(width 0)
			(type solid)
		)
		(fill solid)
		(layer "F.Paste")
		(uuid "159e67ee-f447-4b7d-b280-b82642417ca6")
	)
	(fp_rect
		(start 4.325 24.225)
		(end 5.075 25.775)
		(stroke
			(width 0)
			(type solid)
		)
		(fill solid)
		(layer "F.Paste")
		(uuid "5a84cc89-cdf8-4e9e-982a-fbabc222962a")
	)
	(fp_rect
		(start 5.425 0.225)
		(end 6.175 1.775)
		(stroke
			(width 0)
			(type solid)
		)
		(fill solid)
		(layer "F.Paste")
		(uuid "998cf9c6-301c-4edf-92e9-0cefb6b94620")
	)
	(fp_rect
		(start 5.425 24.225)
		(end 6.175 25.775)
		(stroke
			(width 0)
			(type solid)
		)
		(fill solid)
		(layer "F.Paste")
		(uuid "33211d1e-2122-4ce1-971e-255389d1839f")
	)
	(fp_rect
		(start 6.525 0.225)
		(end 7.275 1.775)
		(stroke
			(width 0)
			(type solid)
		)
		(fill solid)
		(layer "F.Paste")
		(uuid "bfa9ebbb-e524-4f0a-9929-2e7ca660da48")
	)
	(fp_rect
		(start 6.525 24.225)
		(end 7.275 25.775)
		(stroke
			(width 0)
			(type solid)
		)
		(fill solid)
		(layer "F.Paste")
		(uuid "e13e676c-df58-4194-8e0d-ad7a488a7dd6")
	)
	(fp_rect
		(start 7.625 0.225)
		(end 8.375 1.775)
		(stroke
			(width 0)
			(type solid)
		)
		(fill solid)
		(layer "F.Paste")
		(uuid "08246716-32d1-40ad-9f30-d2b1768d3310")
	)
	(fp_rect
		(start 7.625 24.225)
		(end 8.375 25.775)
		(stroke
			(width 0)
			(type solid)
		)
		(fill solid)
		(layer "F.Paste")
		(uuid "942f37ef-bfe6-4c4a-945a-a58349246b7c")
	)
	(fp_rect
		(start 8.725 0.225)
		(end 9.475 1.775)
		(stroke
			(width 0)
			(type solid)
		)
		(fill solid)
		(layer "F.Paste")
		(uuid "c17c06cf-1290-4ab7-97c8-597124dabe21")
	)
	(fp_rect
		(start 8.725 24.225)
		(end 9.475 25.775)
		(stroke
			(width 0)
			(type solid)
		)
		(fill solid)
		(layer "F.Paste")
		(uuid "9c4cf437-dc92-4a81-a423-05614486581e")
	)
	(fp_rect
		(start 9.825 0.225)
		(end 10.575 1.775)
		(stroke
			(width 0)
			(type solid)
		)
		(fill solid)
		(layer "F.Paste")
		(uuid "e1a3add4-3a5b-478f-a00c-467bacb2c6c0")
	)
	(fp_rect
		(start 9.825 24.225)
		(end 10.575 25.775)
		(stroke
			(width 0)
			(type solid)
		)
		(fill solid)
		(layer "F.Paste")
		(uuid "fd72df91-fed5-41cc-9a30-78d2626be9dc")
	)
	(fp_rect
		(start 10.925 0.225)
		(end 11.675 1.775)
		(stroke
			(width 0)
			(type solid)
		)
		(fill solid)
		(layer "F.Paste")
		(uuid "7159b6aa-3dcc-46d2-b4c0-a7efa6f939cf")
	)
	(fp_rect
		(start 10.925 24.225)
		(end 11.675 25.775)
		(stroke
			(width 0)
			(type solid)
		)
		(fill solid)
		(layer "F.Paste")
		(uuid "bae0c263-5953-4ad4-b6ad-9ea1949c14e8")
	)
	(fp_rect
		(start 12.025 0.225)
		(end 12.775 1.775)
		(stroke
			(width 0)
			(type solid)
		)
		(fill solid)
		(layer "F.Paste")
		(uuid "0704b6d1-4182-4123-b9fc-be070fd6c0d9")
	)
	(fp_rect
		(start 12.025 24.225)
		(end 12.775 25.775)
		(stroke
			(width 0)
			(type solid)
		)
		(fill solid)
		(layer "F.Paste")
		(uuid "14fc30c8-167d-4cf1-93c7-9855a6947076")
	)
	(fp_rect
		(start 13.125 0.225)
		(end 13.875 1.775)
		(stroke
			(width 0)
			(type solid)
		)
		(fill solid)
		(layer "F.Paste")
		(uuid "baa34dcc-7d75-4be0-b856-09eaed09d932")
	)
	(fp_rect
		(start 13.125 24.225)
		(end 13.875 25.775)
		(stroke
			(width 0)
			(type solid)
		)
		(fill solid)
		(layer "F.Paste")
		(uuid "0585ad41-b4d7-4f7c-8c9d-61b9edb57867")
	)
	(fp_rect
		(start 14.225 1.625)
		(end 15.775 2.375)
		(stroke
			(width 0)
			(type solid)
		)
		(fill solid)
		(layer "F.Paste")
		(uuid "d22f7833-fc71-4b0a-ac17-7310c4fdc35b")
	)
	(fp_rect
		(start 14.225 2.725)
		(end 15.775 3.475)
		(stroke
			(width 0)
			(type solid)
		)
		(fill solid)
		(layer "F.Paste")
		(uuid "8a6d025a-18f1-4e45-988e-36c1ffd5d3cf")
	)
	(fp_rect
		(start 14.225 3.825)
		(end 15.775 4.575)
		(stroke
			(width 0)
			(type solid)
		)
		(fill solid)
		(layer "F.Paste")
		(uuid "60068528-591a-4bae-98e4-00dd3d999315")
	)
	(fp_rect
		(start 14.225 4.925)
		(end 15.775 5.675)
		(stroke
			(width 0)
			(type solid)
		)
		(fill solid)
		(layer "F.Paste")
		(uuid "8c8e9173-38d0-450c-981a-ae26be5fc3ac")
	)
	(fp_rect
		(start 14.225 6.025)
		(end 15.775 6.775)
		(stroke
			(width 0)
			(type solid)
		)
		(fill solid)
		(layer "F.Paste")
		(uuid "21b06188-10d5-4f47-ad90-cc8b9e03b491")
	)
	(fp_rect
		(start 14.225 7.125)
		(end 15.775 7.875)
		(stroke
			(width 0)
			(type solid)
		)
		(fill solid)
		(layer "F.Paste")
		(uuid "7e699956-8471-46b0-aa16-f2d20cd0dee9")
	)
	(fp_rect
		(start 14.225 8.225)
		(end 15.775 8.975)
		(stroke
			(width 0)
			(type solid)
		)
		(fill solid)
		(layer "F.Paste")
		(uuid "298fd93c-68dc-4ea7-9a7f-c2e815e95ad9")
	)
	(fp_rect
		(start 14.225 9.325)
		(end 15.775 10.075)
		(stroke
			(width 0)
			(type solid)
		)
		(fill solid)
		(layer "F.Paste")
		(uuid "b9ad58d3-9cd5-4713-bac3-94c53123438e")
	)
	(fp_rect
		(start 14.225 10.425)
		(end 15.775 11.175)
		(stroke
			(width 0)
			(type solid)
		)
		(fill solid)
		(layer "F.Paste")
		(uuid "36949ba2-17fc-48ed-843b-923b8e4e8862")
	)
	(fp_rect
		(start 14.225 11.525)
		(end 15.775 12.275)
		(stroke
			(width 0)
			(type solid)
		)
		(fill solid)
		(layer "F.Paste")
		(uuid "4ac6a28c-2fb5-488d-aad3-300b16d14b2d")
	)
	(fp_rect
		(start 14.225 12.625)
		(end 15.775 13.375)
		(stroke
			(width 0)
			(type solid)
		)
		(fill solid)
		(layer "F.Paste")
		(uuid "5008b259-8b3c-4b86-aee7-c2845b5fdd40")
	)
	(fp_rect
		(start 14.225 13.725)
		(end 15.775 14.475)
		(stroke
			(width 0)
			(type solid)
		)
		(fill solid)
		(layer "F.Paste")
		(uuid "4b5fd52a-9474-4423-af5a-73c31b19d971")
	)
	(fp_rect
		(start 14.225 14.825)
		(end 15.775 15.575)
		(stroke
			(width 0)
			(type solid)
		)
		(fill solid)
		(layer "F.Paste")
		(uuid "09a4f9c9-b894-4420-a9e8-b76adbb73b10")
	)
	(fp_rect
		(start 14.225 15.925)
		(end 15.775 16.675)
		(stroke
			(width 0)
			(type solid)
		)
		(fill solid)
		(layer "F.Paste")
		(uuid "02e2ced0-fc8b-4296-863e-34c7c03229ed")
	)
	(fp_rect
		(start 14.225 17.025)
		(end 15.775 17.775)
		(stroke
			(width 0)
			(type solid)
		)
		(fill solid)
		(layer "F.Paste")
		(uuid "0e55da94-070a-4762-8472-9227b38b794e")
	)
	(fp_rect
		(start 14.225 18.125)
		(end 15.775 18.875)
		(stroke
			(width 0)
			(type solid)
		)
		(fill solid)
		(layer "F.Paste")
		(uuid "9a95551e-8078-46a4-91a0-9a6235d3183f")
	)
	(fp_rect
		(start 14.225 19.225)
		(end 15.775 19.975)
		(stroke
			(width 0)
			(type solid)
		)
		(fill solid)
		(layer "F.Paste")
		(uuid "d2e9647d-0f9a-4d62-bbab-21c18812f9b6")
	)
	(fp_rect
		(start 14.225 20.325)
		(end 15.775 21.075)
		(stroke
			(width 0)
			(type solid)
		)
		(fill solid)
		(layer "F.Paste")
		(uuid "a9b3eeca-8eae-4cca-bb05-bda36b794bcb")
	)
	(fp_rect
		(start 14.225 21.425)
		(end 15.775 22.175)
		(stroke
			(width 0)
			(type solid)
		)
		(fill solid)
		(layer "F.Paste")
		(uuid "172d12d0-b189-4a21-9f13-bf55a7bb10b7")
	)
	(fp_rect
		(start 14.225 22.525)
		(end 15.775 23.275)
		(stroke
			(width 0)
			(type solid)
		)
		(fill solid)
		(layer "F.Paste")
		(uuid "87e9c3cf-b07a-4808-96d4-614a20ac8404")
	)
	(fp_rect
		(start 14.225 23.625)
		(end 15.775 24.375)
		(stroke
			(width 0)
			(type solid)
		)
		(fill solid)
		(layer "F.Paste")
		(uuid "3f0b4f31-877f-40d0-834c-6bcbd87f937e")
	)
	(fp_rect
		(start 0 0)
		(end 16 26)
		(stroke
			(width 0.1)
			(type default)
		)
		(fill none)
		(layer "F.SilkS")
		(uuid "7edffc3a-b2e1-43d1-ad35-00e0f343344c")
	)
	(fp_circle
		(center 1 0.75)
		(end 1.559017 0.75)
		(stroke
			(width 0.1)
			(type solid)
		)
		(fill solid)
		(layer "F.SilkS")
		(uuid "60fd50b7-c1cd-4728-a10f-00e430498962")
	)
	(fp_rect
		(start -0.25 -0.25)
		(end 16.25 26.25)
		(stroke
			(width 0.05)
			(type default)
		)
		(fill none)
		(layer "F.CrtYd")
		(uuid "cad8be7a-08d3-4bb1-b5b4-70fb552488dd")
	)
	(fp_line
		(start 0 0.7)
		(end 0 25.7)
		(stroke
			(width 0.15)
			(type default)
		)
		(layer "F.Fab")
		(uuid "9c319675-5a6b-4755-ad4b-a79c1a9e710e")
	)
	(fp_line
		(start 0 25.7)
		(end 16 25.7)
		(stroke
			(width 0.15)
			(type default)
		)
		(layer "F.Fab")
		(uuid "33913a40-6b83-4104-9e98-3697e3948b18")
	)
	(fp_line
		(start 1 -0.3)
		(end 0 0.7)
		(stroke
			(width 0.15)
			(type default)
		)
		(layer "F.Fab")
		(uuid "2a12abbd-d74e-4cb3-9713-bbad8d71d5ee")
	)
	(fp_line
		(start 16 -0.3)
		(end 1 -0.3)
		(stroke
			(width 0.15)
			(type default)
		)
		(layer "F.Fab")
		(uuid "764e5d2a-6f0b-428d-a866-8a8c78a25833")
	)
	(fp_line
		(start 16 25.7)
		(end 16 -0.3)
		(stroke
			(width 0.15)
			(type default)
		)
		(layer "F.Fab")
		(uuid "8a587e65-43c4-4c8d-a4ab-127d22e67cec")
	)
	(fp_text user "${REFERENCE}"
		(at 5 -2.5 0)
		(unlocked yes)
		(layer "F.Fab")
		(uuid "b47e8066-9189-46da-bc38-9e262bc8e52c")
		(effects
			(font
				(size 1 1)
				(thickness 0.15)
			)
		)
	)
	(pad "1" smd rect
		(at 1.05 2 90)
		(size 0.8 1.5)
		(layers "F.Cu" "F.Mask")
		(solder_mask_margin 0.05)
		(solder_paste_margin_ratio -0.05)
		(thermal_bridge_angle 45)
		(uuid "b86b6926-3fb0-4755-a2e4-f4d7e21b01e6")
	)
	(pad "2" smd rect
		(at 1.05 3.1 90)
		(size 0.8 1.5)
		(layers "F.Cu" "F.Mask")
		(solder_mask_margin 0.05)
		(solder_paste_margin_ratio -0.05)
		(thermal_bridge_angle 45)
		(uuid "b11ad2bf-66b6-44ab-a257-d136d28c9242")
	)
	(pad "3" smd rect
		(at 1.05 4.2 90)
		(size 0.8 1.5)
		(layers "F.Cu" "F.Mask")
		(solder_mask_margin 0.05)
		(solder_paste_margin_ratio -0.05)
		(thermal_bridge_angle 45)
		(uuid "5031c113-defe-4c5c-ae81-9e368d993744")
	)
	(pad "4" smd rect
		(at 1.05 5.3 90)
		(size 0.8 1.5)
		(layers "F.Cu" "F.Mask")
		(solder_mask_margin 0.05)
		(solder_paste_margin_ratio -0.05)
		(thermal_bridge_angle 45)
		(uuid "89c09806-4166-4871-b966-9c15f321fee9")
	)
	(pad "5" smd rect
		(at 1.05 6.4 90)
		(size 0.8 1.5)
		(layers "F.Cu" "F.Mask")
		(solder_mask_margin 0.05)
		(solder_paste_margin_ratio -0.05)
		(thermal_bridge_angle 45)
		(uuid "a0da5287-47b1-4299-8de5-033d46dd467b")
	)
	(pad "6" smd rect
		(at 1.05 7.5 90)
		(size 0.8 1.5)
		(layers "F.Cu" "F.Mask")
		(solder_mask_margin 0.05)
		(solder_paste_margin_ratio -0.05)
		(thermal_bridge_angle 45)
		(uuid "3662adf1-0deb-4773-85ac-9ad99fd31175")
	)
	(pad "7" smd rect
		(at 1.05 8.6 90)
		(size 0.8 1.5)
		(layers "F.Cu" "F.Mask")
		(solder_mask_margin 0.05)
		(solder_paste_margin_ratio -0.05)
		(thermal_bridge_angle 45)
		(uuid "554dc652-38a6-4ca2-940f-34d2b5fef005")
	)
	(pad "8" smd rect
		(at 1.05 9.7 90)
		(size 0.8 1.5)
		(layers "F.Cu" "F.Mask")
		(solder_mask_margin 0.05)
		(solder_paste_margin_ratio -0.05)
		(thermal_bridge_angle 45)
		(uuid "5a88f601-26d1-41e2-952b-c5b2aa62f96c")
	)
	(pad "9" smd rect
		(at 1.05 10.8 90)
		(size 0.8 1.5)
		(layers "F.Cu" "F.Mask")
		(solder_mask_margin 0.05)
		(solder_paste_margin_ratio -0.05)
		(thermal_bridge_angle 45)
		(uuid "de070e61-2628-4930-a858-c57514f0fc54")
	)
	(pad "10" smd rect
		(at 1.05 11.9 90)
		(size 0.8 1.5)
		(layers "F.Cu" "F.Mask")
		(solder_mask_margin 0.05)
		(solder_paste_margin_ratio -0.05)
		(thermal_bridge_angle 45)
		(uuid "e7cab2bf-3ba9-4eb9-806b-0807b208bf4d")
	)
	(pad "11" smd rect
		(at 1.05 13 90)
		(size 0.8 1.5)
		(layers "F.Cu" "F.Mask")
		(solder_mask_margin 0.05)
		(solder_paste_margin_ratio -0.05)
		(thermal_bridge_angle 45)
		(uuid "5d7bd918-4b6e-432a-ac1c-62acdb55e4b6")
	)
	(pad "12" smd rect
		(at 1.05 14.1 90)
		(size 0.8 1.5)
		(layers "F.Cu" "F.Mask")
		(solder_mask_margin 0.05)
		(solder_paste_margin_ratio -0.05)
		(thermal_bridge_angle 45)
		(uuid "461fb56c-d57a-43b2-87f8-6b07713a9362")
	)
	(pad "13" smd rect
		(at 1.05 15.2 90)
		(size 0.8 1.5)
		(layers "F.Cu" "F.Mask")
		(solder_mask_margin 0.05)
		(solder_paste_margin_ratio -0.05)
		(thermal_bridge_angle 45)
		(uuid "545ac04b-3949-4651-95e9-929f896642de")
	)
	(pad "14" smd rect
		(at 1.05 16.3 90)
		(size 0.8 1.5)
		(layers "F.Cu" "F.Mask")
		(solder_mask_margin 0.05)
		(solder_paste_margin_ratio -0.05)
		(thermal_bridge_angle 45)
		(uuid "cc0e944e-a261-47cb-b614-73ff2c43ba62")
	)
	(pad "15" smd rect
		(at 1.05 17.4 90)
		(size 0.8 1.5)
		(layers "F.Cu" "F.Mask")
		(solder_mask_margin 0.05)
		(solder_paste_margin_ratio -0.05)
		(thermal_bridge_angle 45)
		(uuid "0feaa900-2bce-4175-b193-9949acf4e746")
	)
	(pad "16" smd rect
		(at 1.05 18.5 90)
		(size 0.8 1.5)
		(layers "F.Cu" "F.Mask")
		(solder_mask_margin 0.05)
		(solder_paste_margin_ratio -0.05)
		(thermal_bridge_angle 45)
		(uuid "7d3f01a5-85d3-4c38-bd69-0e8750971db0")
	)
	(pad "17" smd rect
		(at 1.05 19.6 90)
		(size 0.8 1.5)
		(layers "F.Cu" "F.Mask")
		(solder_mask_margin 0.05)
		(solder_paste_margin_ratio -0.05)
		(thermal_bridge_angle 45)
		(uuid "8c493a31-9f0e-424d-93e8-6c3375b15302")
	)
	(pad "18" smd rect
		(at 1.05 20.7 90)
		(size 0.8 1.5)
		(layers "F.Cu" "F.Mask")
		(solder_mask_margin 0.05)
		(solder_paste_margin_ratio -0.05)
		(thermal_bridge_angle 45)
		(uuid "73c5d1b9-ec80-4d9b-8356-63af1257c121")
	)
	(pad "19" smd rect
		(at 1.05 21.8 90)
		(size 0.8 1.5)
		(layers "F.Cu" "F.Mask")
		(solder_mask_margin 0.05)
		(solder_paste_margin_ratio -0.05)
		(thermal_bridge_angle 45)
		(uuid "2aafa95e-99a5-43cd-b7d0-a135d8ac7a60")
	)
	(pad "20" smd rect
		(at 1.05 22.9 90)
		(size 0.8 1.5)
		(layers "F.Cu" "F.Mask")
		(solder_mask_margin 0.05)
		(solder_paste_margin_ratio -0.05)
		(thermal_bridge_angle 45)
		(uuid "0c8f0012-b0b1-4352-be33-3402fde12749")
	)
	(pad "21" smd rect
		(at 1.05 24 90)
		(size 0.8 1.5)
		(layers "F.Cu" "F.Mask")
		(solder_mask_margin 0.05)
		(solder_paste_margin_ratio -0.05)
		(thermal_bridge_angle 45)
		(uuid "599e3299-e599-4d88-b28f-f8dcac2a76ec")
	)
	(pad "22" smd rect
		(at 2.5 24.95)
		(size 0.8 1.5)
		(layers "F.Cu" "F.Mask")
		(solder_mask_margin 0.05)
		(solder_paste_margin_ratio -0.05)
		(thermal_bridge_angle 45)
		(uuid "c12f9ebe-7dc6-4f06-b15a-6d72483782f1")
	)
	(pad "23" smd rect
		(at 3.6 24.95)
		(size 0.8 1.5)
		(layers "F.Cu" "F.Mask")
		(solder_mask_margin 0.05)
		(solder_paste_margin_ratio -0.05)
		(thermal_bridge_angle 45)
		(uuid "787dd5cf-1832-4509-9877-b9443c440b0f")
	)
	(pad "24" smd rect
		(at 4.7 24.95)
		(size 0.8 1.5)
		(layers "F.Cu" "F.Mask")
		(solder_mask_margin 0.05)
		(solder_paste_margin_ratio -0.05)
		(thermal_bridge_angle 45)
		(uuid "102ff6d2-1249-4c95-9dde-65e8f6a9476c")
	)
	(pad "25" smd rect
		(at 5.8 24.95)
		(size 0.8 1.5)
		(layers "F.Cu" "F.Mask")
		(solder_mask_margin 0.05)
		(solder_paste_margin_ratio -0.05)
		(thermal_bridge_angle 45)
		(uuid "351a41a8-aad9-48a4-83c9-67220bb585cc")
	)
	(pad "26" smd rect
		(at 6.9 24.95)
		(size 0.8 1.5)
		(layers "F.Cu" "F.Mask")
		(solder_mask_margin 0.05)
		(solder_paste_margin_ratio -0.05)
		(thermal_bridge_angle 45)
		(uuid "d966f155-5eff-44e7-aaf0-7fa9159fbfe9")
	)
	(pad "27" smd rect
		(at 8 24.95)
		(size 0.8 1.5)
		(layers "F.Cu" "F.Mask")
		(solder_mask_margin 0.05)
		(solder_paste_margin_ratio -0.05)
		(thermal_bridge_angle 45)
		(uuid "9360036b-694e-439a-9d38-16a4e625a229")
	)
	(pad "28" smd rect
		(at 9.1 24.95)
		(size 0.8 1.5)
		(layers "F.Cu" "F.Mask")
		(solder_mask_margin 0.05)
		(solder_paste_margin_ratio -0.05)
		(thermal_bridge_angle 45)
		(uuid "8d149171-7d7f-444e-a49a-c7b061f1c711")
	)
	(pad "29" smd rect
		(at 10.2 24.95)
		(size 0.8 1.5)
		(layers "F.Cu" "F.Mask")
		(solder_mask_margin 0.05)
		(solder_paste_margin_ratio -0.05)
		(thermal_bridge_angle 45)
		(uuid "da076e92-0fcd-4509-ae27-74ab0b3d0420")
	)
	(pad "30" smd rect
		(at 11.3 24.95)
		(size 0.8 1.5)
		(layers "F.Cu" "F.Mask")
		(solder_mask_margin 0.05)
		(solder_paste_margin_ratio -0.05)
		(thermal_bridge_angle 45)
		(uuid "dce5d268-d2ae-4f6f-9bde-c64335c4cb74")
	)
	(pad "31" smd rect
		(at 12.4 24.95)
		(size 0.8 1.5)
		(layers "F.Cu" "F.Mask")
		(solder_mask_margin 0.05)
		(solder_paste_margin_ratio -0.05)
		(thermal_bridge_angle 45)
		(uuid "3d7b8d57-4bd1-4076-91c6-728839681a4a")
	)
	(pad "32" smd rect
		(at 13.5 24.95)
		(size 0.8 1.5)
		(layers "F.Cu" "F.Mask")
		(solder_mask_margin 0.05)
		(solder_paste_margin_ratio -0.05)
		(thermal_bridge_angle 45)
		(uuid "cc3fe084-62f8-4f1b-963d-bc6cfe4f2bc9")
	)
	(pad "33" smd rect
		(at 14.95 24 90)
		(size 0.8 1.5)
		(layers "F.Cu" "F.Mask")
		(solder_mask_margin 0.05)
		(solder_paste_margin_ratio -0.05)
		(thermal_bridge_angle 45)
		(uuid "4e8f1837-d254-48a4-9f75-01addf75be17")
	)
	(pad "34" smd rect
		(at 14.95 22.9 90)
		(size 0.8 1.5)
		(layers "F.Cu" "F.Mask")
		(solder_mask_margin 0.05)
		(solder_paste_margin_ratio -0.05)
		(thermal_bridge_angle 45)
		(uuid "58dfee2c-5a36-47b6-8544-712f646cb8f9")
	)
	(pad "35" smd rect
		(at 14.95 21.8 90)
		(size 0.8 1.5)
		(layers "F.Cu" "F.Mask")
		(solder_mask_margin 0.05)
		(solder_paste_margin_ratio -0.05)
		(thermal_bridge_angle 45)
		(uuid "eee8f68a-ff47-43e3-a5e6-fd364ee29ab6")
	)
	(pad "36" smd rect
		(at 14.95 20.7 90)
		(size 0.8 1.5)
		(layers "F.Cu" "F.Mask")
		(solder_mask_margin 0.05)
		(solder_paste_margin_ratio -0.05)
		(thermal_bridge_angle 45)
		(uuid "81d10d74-5962-419d-a325-c298169a189f")
	)
	(pad "37" smd rect
		(at 14.95 19.6 90)
		(size 0.8 1.5)
		(layers "F.Cu" "F.Mask")
		(solder_mask_margin 0.05)
		(solder_paste_margin_ratio -0.05)
		(thermal_bridge_angle 45)
		(uuid "784834aa-8706-43ff-bc27-7c7adca2ce9d")
	)
	(pad "38" smd rect
		(at 14.95 18.5 90)
		(size 0.8 1.5)
		(layers "F.Cu" "F.Mask")
		(solder_mask_margin 0.05)
		(solder_paste_margin_ratio -0.05)
		(thermal_bridge_angle 45)
		(uuid "ca1a453a-cc02-4811-ade0-134fbdd010be")
	)
	(pad "39" smd rect
		(at 14.95 17.4 90)
		(size 0.8 1.5)
		(layers "F.Cu" "F.Mask")
		(solder_mask_margin 0.05)
		(solder_paste_margin_ratio -0.05)
		(thermal_bridge_angle 45)
		(uuid "51327bf9-c173-44b9-a281-d063ddbf9bf3")
	)
	(pad "40" smd rect
		(at 14.95 16.3 90)
		(size 0.8 1.5)
		(layers "F.Cu" "F.Mask")
		(solder_mask_margin 0.05)
		(solder_paste_margin_ratio -0.05)
		(thermal_bridge_angle 45)
		(uuid "02c259eb-5cd6-4d1c-8aeb-016be46568bb")
	)
	(pad "41" smd rect
		(at 14.95 15.2 90)
		(size 0.8 1.5)
		(layers "F.Cu" "F.Mask")
		(solder_mask_margin 0.05)
		(solder_paste_margin_ratio -0.05)
		(thermal_bridge_angle 45)
		(uuid "667632b6-a5bf-4775-be46-edee3f2c25cb")
	)
	(pad "42" smd rect
		(at 14.95 14.1 90)
		(size 0.8 1.5)
		(layers "F.Cu" "F.Mask")
		(solder_mask_margin 0.05)
		(solder_paste_margin_ratio -0.05)
		(thermal_bridge_angle 45)
		(uuid "e8269a6e-2265-4402-87ba-c8510577ad0c")
	)
	(pad "43" smd rect
		(at 14.95 13 90)
		(size 0.8 1.5)
		(layers "F.Cu" "F.Mask")
		(solder_mask_margin 0.05)
		(solder_paste_margin_ratio -0.05)
		(thermal_bridge_angle 45)
		(uuid "ceaae101-87eb-4a90-818d-0bfa466a85de")
	)
	(pad "44" smd rect
		(at 14.95 11.9 90)
		(size 0.8 1.5)
		(layers "F.Cu" "F.Mask")
		(solder_mask_margin 0.05)
		(solder_paste_margin_ratio -0.05)
		(thermal_bridge_angle 45)
		(uuid "7b3d1942-1f78-414a-84ef-32257a6a0907")
	)
	(pad "45" smd rect
		(at 14.95 10.8 90)
		(size 0.8 1.5)
		(layers "F.Cu" "F.Mask")
		(solder_mask_margin 0.05)
		(solder_paste_margin_ratio -0.05)
		(thermal_bridge_angle 45)
		(uuid "7fdbda52-8ff8-4407-a57a-cf6fcc9a6118")
	)
	(pad "46" smd rect
		(at 14.95 9.7 90)
		(size 0.8 1.5)
		(layers "F.Cu" "F.Mask")
		(solder_mask_margin 0.05)
		(solder_paste_margin_ratio -0.05)
		(thermal_bridge_angle 45)
		(uuid "64fe46ac-e2ce-4c17-a849-d674dc1d81e4")
	)
	(pad "47" smd rect
		(at 14.95 8.6 90)
		(size 0.8 1.5)
		(layers "F.Cu" "F.Mask")
		(solder_mask_margin 0.05)
		(solder_paste_margin_ratio -0.05)
		(thermal_bridge_angle 45)
		(uuid "fc2ec468-9cb7-468d-967b-3279a441b4e7")
	)
	(pad "48" smd rect
		(at 14.95 7.5 90)
		(size 0.8 1.5)
		(layers "F.Cu" "F.Mask")
		(solder_mask_margin 0.05)
		(solder_paste_margin_ratio -0.05)
		(thermal_bridge_angle 45)
		(uuid "bd0cf759-7586-4a6e-ad2e-e7c59698e016")
	)
	(pad "49" smd rect
		(at 14.95 6.4 90)
		(size 0.8 1.5)
		(layers "F.Cu" "F.Mask")
		(solder_mask_margin 0.05)
		(solder_paste_margin_ratio -0.05)
		(thermal_bridge_angle 45)
		(uuid "044e5d7a-484e-4898-a096-668c46724bf7")
	)
	(pad "50" smd rect
		(at 14.95 5.3 90)
		(size 0.8 1.5)
		(layers "F.Cu" "F.Mask")
		(solder_mask_margin 0.05)
		(solder_paste_margin_ratio -0.05)
		(thermal_bridge_angle 45)
		(uuid "caf9a8fa-10a4-4178-8210-8b780b9c9e3a")
	)
	(pad "51" smd rect
		(at 14.95 4.2 90)
		(size 0.8 1.5)
		(layers "F.Cu" "F.Mask")
		(solder_mask_margin 0.05)
		(solder_paste_margin_ratio -0.05)
		(thermal_bridge_angle 45)
		(uuid "548a6f7e-b3d5-4d2c-9c55-5121d913d801")
	)
	(pad "52" smd rect
		(at 14.95 3.1 90)
		(size 0.8 1.5)
		(layers "F.Cu" "F.Mask")
		(solder_mask_margin 0.05)
		(solder_paste_margin_ratio -0.05)
		(thermal_bridge_angle 45)
		(uuid "b3757ec0-d8f7-4528-bf39-5b75d8cd397f")
	)
	(pad "53" smd rect
		(at 14.95 2 90)
		(size 0.8 1.5)
		(layers "F.Cu" "F.Mask")
		(solder_mask_margin 0.05)
		(solder_paste_margin_ratio -0.05)
		(thermal_bridge_angle 45)
		(uuid "22cc3212-a09c-4d54-b9f5-b2d3a0a4a93c")
	)
	(pad "54" smd rect
		(at 13.5 1.05)
		(size 0.8 1.5)
		(layers "F.Cu" "F.Mask")
		(solder_mask_margin 0.05)
		(solder_paste_margin_ratio -0.05)
		(thermal_bridge_angle 45)
		(uuid "820f02dd-309a-4d86-8704-b25bd5eb4bc0")
	)
	(pad "55" smd rect
		(at 12.4 1.05)
		(size 0.8 1.5)
		(layers "F.Cu" "F.Mask")
		(solder_mask_margin 0.05)
		(solder_paste_margin_ratio -0.05)
		(thermal_bridge_angle 45)
		(uuid "4f76670a-6fdd-43b1-b9f5-6985bf524e88")
	)
	(pad "56" smd rect
		(at 11.3 1.05)
		(size 0.8 1.5)
		(layers "F.Cu" "F.Mask")
		(solder_mask_margin 0.05)
		(solder_paste_margin_ratio -0.05)
		(thermal_bridge_angle 45)
		(uuid "44d8e2b4-3f9e-40e3-8c5b-7e1ef0b31597")
	)
	(pad "57" smd rect
		(at 10.2 1.05)
		(size 0.8 1.5)
		(layers "F.Cu" "F.Mask")
		(solder_mask_margin 0.05)
		(solder_paste_margin_ratio -0.05)
		(thermal_bridge_angle 45)
		(uuid "08f43a6b-7b2f-433f-a568-1e5aca924166")
	)
	(pad "58" smd rect
		(at 9.1 1.05)
		(size 0.8 1.5)
		(layers "F.Cu" "F.Mask")
		(solder_mask_margin 0.05)
		(solder_paste_margin_ratio -0.05)
		(thermal_bridge_angle 45)
		(uuid "07837b58-4a8b-42b1-ac10-5cedaf9cef34")
	)
	(pad "59" smd rect
		(at 8 1.05)
		(size 0.8 1.5)
		(layers "F.Cu" "F.Mask")
		(solder_mask_margin 0.05)
		(solder_paste_margin_ratio -0.05)
		(thermal_bridge_angle 45)
		(uuid "77d13536-4506-4af0-b0ef-6ddeca81cf84")
	)
	(pad "60" smd rect
		(at 6.9 1.05)
		(size 0.8 1.5)
		(layers "F.Cu" "F.Mask")
		(solder_mask_margin 0.05)
		(solder_paste_margin_ratio -0.05)
		(thermal_bridge_angle 45)
		(uuid "bc8ee2c7-8566-4085-a09c-2c2dcbfa0313")
	)
	(pad "61" smd rect
		(at 5.8 1.05)
		(size 0.8 1.5)
		(layers "F.Cu" "F.Mask")
		(solder_mask_margin 0.05)
		(solder_paste_margin_ratio -0.05)
		(thermal_bridge_angle 45)
		(uuid "da95f533-86bb-49b9-b85d-2a007e45bf51")
	)
	(pad "62" smd rect
		(at 4.7 1.05)
		(size 0.8 1.5)
		(layers "F.Cu" "F.Mask")
		(solder_mask_margin 0.05)
		(solder_paste_margin_ratio -0.05)
		(thermal_bridge_angle 45)
		(uuid "9c5da613-d4e8-47e1-8e3d-e02505403dac")
	)
	(pad "63" smd rect
		(at 3.6 1.05)
		(size 0.8 1.5)
		(layers "F.Cu" "F.Mask")
		(solder_mask_margin 0.05)
		(solder_paste_margin_ratio -0.05)
		(thermal_bridge_angle 45)
		(uuid "8a78d8c5-fe78-4737-b2c5-c6a2074cd7ad")
	)
	(pad "64" smd rect
		(at 2.5 1.05)
		(size 0.8 1.5)
		(layers "F.Cu" "F.Mask")
		(solder_mask_margin 0.05)
		(solder_paste_margin_ratio -0.05)
		(thermal_bridge_angle 45)
		(uuid "508f8b5c-7791-40b8-b2cd-4065ab8d36c1")
	)
	(pad "65" smd rect
		(at 2.75 2.75)
		(size 1.1 1.1)
		(layers "F.Cu" "F.Paste" "F.Mask")
		(solder_mask_margin 0.05)
		(solder_paste_margin_ratio -0.05)
		(thermal_bridge_angle 45)
		(uuid "7df46095-075d-48db-97ea-3177caf74c4c")
	)
	(pad "66" smd rect
		(at 4.85 2.75)
		(size 1.1 1.1)
		(layers "F.Cu" "F.Paste" "F.Mask")
		(solder_mask_margin 0.05)
		(solder_paste_margin_ratio -0.05)
		(thermal_bridge_angle 45)
		(uuid "1fa99b03-7ef4-48a6-887f-0387d8dadb69")
	)
	(pad "67" smd rect
		(at 6.95 2.75)
		(size 1.1 1.1)
		(layers "F.Cu" "F.Paste" "F.Mask")
		(solder_mask_margin 0.05)
		(solder_paste_margin_ratio -0.05)
		(thermal_bridge_angle 45)
		(uuid "f72bf709-726d-49f0-8cbf-8a1e3609fbef")
	)
	(pad "68" smd rect
		(at 9.05 2.75)
		(size 1.1 1.1)
		(layers "F.Cu" "F.Paste" "F.Mask")
		(solder_mask_margin 0.05)
		(solder_paste_margin_ratio -0.05)
		(thermal_bridge_angle 45)
		(uuid "1810a63e-ca0d-4def-9fb8-970e7bdd9dc8")
	)
	(pad "69" smd rect
		(at 11.15 2.75)
		(size 1.1 1.1)
		(layers "F.Cu" "F.Paste" "F.Mask")
		(solder_mask_margin 0.05)
		(solder_paste_margin_ratio -0.05)
		(thermal_bridge_angle 45)
		(uuid "f53d9e48-3110-4ced-ab5d-94eb644f9955")
	)
	(pad "70" smd rect
		(at 13.25 2.75)
		(size 1.1 1.1)
		(layers "F.Cu" "F.Paste" "F.Mask")
		(solder_mask_margin 0.05)
		(solder_paste_margin_ratio -0.05)
		(thermal_bridge_angle 45)
		(uuid "762b3633-f838-4e74-a282-9f4ffdadaeba")
	)
	(pad "71" smd rect
		(at 2.75 4.55)
		(size 1.1 1.1)
		(layers "F.Cu" "F.Paste" "F.Mask")
		(solder_mask_margin 0.05)
		(solder_paste_margin_ratio -0.05)
		(thermal_bridge_angle 45)
		(uuid "706af8a1-4e0c-4669-9131-a95a26c334f1")
	)
	(pad "72" smd rect
		(at 4.85 4.55)
		(size 1.1 1.1)
		(layers "F.Cu" "F.Paste" "F.Mask")
		(solder_mask_margin 0.05)
		(solder_paste_margin_ratio -0.05)
		(thermal_bridge_angle 45)
		(uuid "bd093062-adf9-4d24-a2f0-12e47e5c6ae0")
	)
	(pad "73" smd rect
		(at 6.95 4.55)
		(size 1.1 1.1)
		(layers "F.Cu" "F.Paste" "F.Mask")
		(solder_mask_margin 0.05)
		(solder_paste_margin_ratio -0.05)
		(thermal_bridge_angle 45)
		(uuid "c918408e-bcd3-4011-ae54-117ffad47ac8")
	)
	(pad "74" smd rect
		(at 9.05 4.55)
		(size 1.1 1.1)
		(layers "F.Cu" "F.Paste" "F.Mask")
		(solder_mask_margin 0.05)
		(solder_paste_margin_ratio -0.05)
		(thermal_bridge_angle 45)
		(uuid "4c93a223-69b4-451d-a972-026500e4907e")
	)
	(pad "75" smd rect
		(at 11.15 4.55)
		(size 1.1 1.1)
		(layers "F.Cu" "F.Paste" "F.Mask")
		(solder_mask_margin 0.05)
		(solder_paste_margin_ratio -0.05)
		(thermal_bridge_angle 45)
		(uuid "513e8ad3-6a6e-44a5-97ad-abd51284f513")
	)
	(pad "76" smd rect
		(at 13.25 4.55)
		(size 1.1 1.1)
		(layers "F.Cu" "F.Paste" "F.Mask")
		(solder_mask_margin 0.05)
		(solder_paste_margin_ratio -0.05)
		(thermal_bridge_angle 45)
		(uuid "b146efc7-21f0-465f-9760-3ee0075c8fba")
	)
	(pad "77" smd rect
		(at 2.75 6.35)
		(size 1.1 1.1)
		(layers "F.Cu" "F.Paste" "F.Mask")
		(solder_mask_margin 0.05)
		(solder_paste_margin_ratio -0.05)
		(thermal_bridge_angle 45)
		(uuid "6b3b8032-f30e-445b-adb8-209011977ef1")
	)
	(pad "78" smd rect
		(at 13.25 6.35)
		(size 1.1 1.1)
		(layers "F.Cu" "F.Paste" "F.Mask")
		(solder_mask_margin 0.05)
		(solder_paste_margin_ratio -0.05)
		(thermal_bridge_angle 45)
		(uuid "31dab8d9-d20a-4c52-875e-9333587228c5")
	)
	(pad "79" smd rect
		(at 2.75 9.95)
		(size 1.1 1.1)
		(layers "F.Cu" "F.Paste" "F.Mask")
		(solder_mask_margin 0.05)
		(solder_paste_margin_ratio -0.05)
		(thermal_bridge_angle 45)
		(uuid "67745b35-4165-4ab0-9365-7aef41ab6b1e")
	)
	(pad "80" smd rect
		(at 13.25 9.95)
		(size 1.1 1.1)
		(layers "F.Cu" "F.Paste" "F.Mask")
		(solder_mask_margin 0.05)
		(solder_paste_margin_ratio -0.05)
		(thermal_bridge_angle 45)
		(uuid "38ddb180-c63d-48a1-b613-4d5a4a63a5fd")
	)
	(pad "81" smd rect
		(at 2.75 16.05)
		(size 1.1 1.1)
		(layers "F.Cu" "F.Paste" "F.Mask")
		(solder_mask_margin 0.05)
		(solder_paste_margin_ratio -0.05)
		(thermal_bridge_angle 45)
		(uuid "bffe3c11-ebcf-4001-8497-c9c4070a63df")
	)
	(pad "82" smd rect
		(at 13.25 16.05)
		(size 1.1 1.1)
		(layers "F.Cu" "F.Paste" "F.Mask")
		(solder_mask_margin 0.05)
		(solder_paste_margin_ratio -0.05)
		(thermal_bridge_angle 45)
		(uuid "9d4ca0ec-cb02-4362-90d9-0e8ab1835ca8")
	)
	(pad "83" smd rect
		(at 2.75 19.65)
		(size 1.1 1.1)
		(layers "F.Cu" "F.Paste" "F.Mask")
		(solder_mask_margin 0.05)
		(solder_paste_margin_ratio -0.05)
		(thermal_bridge_angle 45)
		(uuid "3fc1b098-3563-4794-b710-438202701c32")
	)
	(pad "84" smd rect
		(at 13.25 19.65)
		(size 1.1 1.1)
		(layers "F.Cu" "F.Paste" "F.Mask")
		(solder_mask_margin 0.05)
		(solder_paste_margin_ratio -0.05)
		(thermal_bridge_angle 45)
		(uuid "3bc171ef-5b5b-48a9-9f82-e418b42f292c")
	)
	(pad "85" smd rect
		(at 2.75 21.45)
		(size 1.1 1.1)
		(layers "F.Cu" "F.Paste" "F.Mask")
		(solder_mask_margin 0.05)
		(solder_paste_margin_ratio -0.05)
		(thermal_bridge_angle 45)
		(uuid "00131364-6107-47b6-9ba1-1fd088c1fc0f")
	)
	(pad "86" smd rect
		(at 4.85 21.45)
		(size 1.1 1.1)
		(layers "F.Cu" "F.Paste" "F.Mask")
		(solder_mask_margin 0.05)
		(solder_paste_margin_ratio -0.05)
		(thermal_bridge_angle 45)
		(uuid "a9014a55-ba5a-4bc6-8c9d-ea83dca80359")
	)
	(pad "87" smd rect
		(at 6.95 21.45)
		(size 1.1 1.1)
		(layers "F.Cu" "F.Paste" "F.Mask")
		(solder_mask_margin 0.05)
		(solder_paste_margin_ratio -0.05)
		(thermal_bridge_angle 45)
		(uuid "b80b5c74-eb8f-4105-8a86-9761338416cf")
	)
	(pad "88" smd rect
		(at 9.05 21.45)
		(size 1.1 1.1)
		(layers "F.Cu" "F.Paste" "F.Mask")
		(solder_mask_margin 0.05)
		(solder_paste_margin_ratio -0.05)
		(thermal_bridge_angle 45)
		(uuid "fa22aaaa-6da5-412e-9ba9-1616b58e82a6")
	)
	(pad "89" smd rect
		(at 11.15 21.45)
		(size 1.1 1.1)
		(layers "F.Cu" "F.Paste" "F.Mask")
		(solder_mask_margin 0.05)
		(solder_paste_margin_ratio -0.05)
		(thermal_bridge_angle 45)
		(uuid "563130db-b5dd-48e2-8e00-fd870d4e442a")
	)
	(pad "90" smd rect
		(at 13.25 21.45)
		(size 1.1 1.1)
		(layers "F.Cu" "F.Paste" "F.Mask")
		(solder_mask_margin 0.05)
		(solder_paste_margin_ratio -0.05)
		(thermal_bridge_angle 45)
		(uuid "0c9f05cf-63fa-499c-a547-cd21ab2d0c78")
	)
	(pad "91" smd rect
		(at 2.75 23.25)
		(size 1.1 1.1)
		(layers "F.Cu" "F.Paste" "F.Mask")
		(solder_mask_margin 0.05)
		(solder_paste_margin_ratio -0.05)
		(thermal_bridge_angle 45)
		(uuid "471e4f70-02ba-4295-b2cb-511c9cf5c1b2")
	)
	(pad "92" smd rect
		(at 4.85 23.25)
		(size 1.1 1.1)
		(layers "F.Cu" "F.Paste" "F.Mask")
		(solder_mask_margin 0.05)
		(solder_paste_margin_ratio -0.05)
		(thermal_bridge_angle 45)
		(uuid "0d1be368-0251-46e4-8162-8067b4f4cc88")
	)
	(pad "93" smd rect
		(at 6.95 23.25)
		(size 1.1 1.1)
		(layers "F.Cu" "F.Paste" "F.Mask")
		(solder_mask_margin 0.05)
		(solder_paste_margin_ratio -0.05)
		(thermal_bridge_angle 45)
		(uuid "5b4cb8a3-7b07-4368-8c56-2a91cd8c5a5e")
	)
	(pad "94" smd rect
		(at 9.05 23.25)
		(size 1.1 1.1)
		(layers "F.Cu" "F.Paste" "F.Mask")
		(solder_mask_margin 0.05)
		(solder_paste_margin_ratio -0.05)
		(thermal_bridge_angle 45)
		(uuid "a5bc53f7-068d-408b-8fc8-ae23a3251fc9")
	)
	(pad "95" smd rect
		(at 11.15 23.25)
		(size 1.1 1.1)
		(layers "F.Cu" "F.Paste" "F.Mask")
		(solder_mask_margin 0.05)
		(solder_paste_margin_ratio -0.05)
		(thermal_bridge_angle 45)
		(uuid "82b873e6-bb72-4034-9966-5c183a690db2")
	)
	(pad "96" smd rect
		(at 13.25 23.25)
		(size 1.1 1.1)
		(layers "F.Cu" "F.Paste" "F.Mask")
		(solder_mask_margin 0.05)
		(solder_paste_margin_ratio -0.05)
		(thermal_bridge_angle 45)
		(uuid "0b300caa-1f10-4627-838e-c83b2cdcdfb9")
	)
	(model "${KICAD_LIB_BY_JULIO}/kicad-packages3D/U-Blox/CEL/SARA-R5xx.STEP"
		(offset
			(xyz 6.89 -10.08 2.1)
		)
		(scale
			(xyz 1 1 1)
		)
		(rotate
			(xyz 0 0 90)
		)
	)
)
